<svg width="40" height="40" viewBox="0 0 40 40" fill="none" xmlns="http://www.w3.org/2000/svg">
<g opacity="0.8">
<rect x="10.5" y="17.5" width="1" height="12" rx="0.5" stroke="#282A35"/>
<rect x="16.5" y="7.5" width="1" height="22" rx="0.5" stroke="#282A35"/>
<rect x="22.5" y="14.5" width="1" height="15" rx="0.5" stroke="#282A35"/>
<rect x="28.5008" y="24.4982" width="1.00151" height="5.00179" rx="0.500757" stroke="#282A35" stroke-width="1.00151"/>
</g>
</svg>
